## Interface: 80100
## Title: |cff0080ffBaudErrorFrame|r
## Title-zhCN: |cff0080ffBaudErrorFrame|r 报错收集
## Title-zhTW: |cff0080ffBaudErrorFrame|r 報錯收集
## Notes: Improved error reporting
## Author: Baudzilla, wolftankk, Affli@RU-Howling Fjord
## Version: KkthnxUI Modified
## SavedVariables: BaudErrorFrameConfig

BaudErrorFrame.xml